1542598660.058019032s 1 5c995a7f-a8d4-410d-b2db-fd49c28d1ec9
1542665171.119209975s 1 f6227687-ea2a-48cc-9fc3-aceb71ef49fc
1542991774.247313471s 1 e2a612d8-4829-48a2-88bd-46cf3c720040
1543283950.643695067s 0 5c995a7f-a8d4-410d-b2db-fd49c28d1ec9
1543697565.320457446s 0 f6227687-ea2a-48cc-9fc3-aceb71ef49fc
1543811282.976227476s 1 87316946-ba27-41a8-a18b-96b296fb458d
