1542609595.995140609s 1 5c995a7f-a8d4-410d-b2db-fd49c28d1ec9
1542695836.16794503s 1 f6227687-ea2a-48cc-9fc3-aceb71ef49fc
1543697684.80075412s 0 f6227687-ea2a-48cc-9fc3-aceb71ef49fc
1543846702.54653967s 1 87316946-ba27-41a8-a18b-96b296fb458d
