1542620390.542163392s 1 5c995a7f-a8d4-410d-b2db-fd49c28d1ec9
1542719957.396494221s 1 f6227687-ea2a-48cc-9fc3-aceb71ef49fc
1543697889.833939798s 0 f6227687-ea2a-48cc-9fc3-aceb71ef49fc
1543864039.763772896s 1 87316946-ba27-41a8-a18b-96b296fb458d
