1542606418.112307867s 1 5c995a7f-a8d4-410d-b2db-fd49c28d1ec9
1542688436.583582127s 1 f6227687-ea2a-48cc-9fc3-aceb71ef49fc
1543697651.185628076s 0 f6227687-ea2a-48cc-9fc3-aceb71ef49fc
1543841855.355022161s 1 87316946-ba27-41a8-a18b-96b296fb458d
