1542597619.920322354s 1 5c995a7f-a8d4-410d-b2db-fd49c28d1ec9
1542660686.678116185s 1 f6227687-ea2a-48cc-9fc3-aceb71ef49fc
1542914981.977302335s 1 e2a612d8-4829-48a2-88bd-46cf3c720040
1543297995.888869696s 1 5c995a7f-a8d4-410d-b2db-fd49c28d1ec9
1543697554.667067187s 0 f6227687-ea2a-48cc-9fc3-aceb71ef49fc
1543767767.747200558s 1 87316946-ba27-41a8-a18b-96b296fb458d
