1542597216.364884935s 1 5c995a7f-a8d4-410d-b2db-fd49c28d1ec9
1542659040.421772512s 1 f6227687-ea2a-48cc-9fc3-aceb71ef49fc
1542886151.953082378s 1 e2a612d8-4829-48a2-88bd-46cf3c720040
1543296213.883085095s 1 5c995a7f-a8d4-410d-b2db-fd49c28d1ec9
1543697550.11561218s 0 f6227687-ea2a-48cc-9fc3-aceb71ef49fc
1543766698.097685474s 1 87316946-ba27-41a8-a18b-96b296fb458d
