1542596714.032122296s 1 5c995a7f-a8d4-410d-b2db-fd49c28d1ec9
1542656776.75540638s 1 f6227687-ea2a-48cc-9fc3-aceb71ef49fc
1543154221.784794839s 1 e2a612d8-4829-48a2-88bd-46cf3c720040
1543697545.286914944s 0 f6227687-ea2a-48cc-9fc3-aceb71ef49fc
1543765382.549387686s 1 87316946-ba27-41a8-a18b-96b296fb458d
