1542610735.994059407s 1 5c995a7f-a8d4-410d-b2db-fd49c28d1ec9
1542699348.819265073s 1 f6227687-ea2a-48cc-9fc3-aceb71ef49fc
1543697699.206182858s 0 f6227687-ea2a-48cc-9fc3-aceb71ef49fc
1543848490.729063882s 1 87316946-ba27-41a8-a18b-96b296fb458d
