1542596477.627053886s 1 5c995a7f-a8d4-410d-b2db-fd49c28d1ec9
1542655777.752864472s 1 f6227687-ea2a-48cc-9fc3-aceb71ef49fc
1542809463.066018926s 1 e2a612d8-4829-48a2-88bd-46cf3c720040
1543119967.413776932s 0 5c995a7f-a8d4-410d-b2db-fd49c28d1ec9
1543294619.029429881s 1 5c995a7f-a8d4-410d-b2db-fd49c28d1ec9
1543696972.094843358s 0 f6227687-ea2a-48cc-9fc3-aceb71ef49fc
1543751804.304591996s 1 87316946-ba27-41a8-a18b-96b296fb458d
