1542604293.069552564s 1 5c995a7f-a8d4-410d-b2db-fd49c28d1ec9
1542680830.432767781s 1 f6227687-ea2a-48cc-9fc3-aceb71ef49fc
1543697622.757393664s 0 f6227687-ea2a-48cc-9fc3-aceb71ef49fc
1543837337.415902556s 1 87316946-ba27-41a8-a18b-96b296fb458d
