1542625685.880586952s 1 5c995a7f-a8d4-410d-b2db-fd49c28d1ec9
1542727092.376909432s 1 f6227687-ea2a-48cc-9fc3-aceb71ef49fc
1543697929.780972077s 0 f6227687-ea2a-48cc-9fc3-aceb71ef49fc
1543872265.901318668s 1 87316946-ba27-41a8-a18b-96b296fb458d
