1542599089.16866579s 1 5c995a7f-a8d4-410d-b2db-fd49c28d1ec9
1542666986.009332295s 1 f6227687-ea2a-48cc-9fc3-aceb71ef49fc
1543201963.165281572s 1 e2a612d8-4829-48a2-88bd-46cf3c720040
1543697569.617553044s 0 f6227687-ea2a-48cc-9fc3-aceb71ef49fc
1543821241.672304504s 1 87316946-ba27-41a8-a18b-96b296fb458d
