1542598403.706198931s 1 5c995a7f-a8d4-410d-b2db-fd49c28d1ec9
1542664115.281670921s 1 f6227687-ea2a-48cc-9fc3-aceb71ef49fc
1542973811.803958221s 1 e2a612d8-4829-48a2-88bd-46cf3c720040
1543263529.023802404s 0 5c995a7f-a8d4-410d-b2db-fd49c28d1ec9
1543697562.971844538s 0 f6227687-ea2a-48cc-9fc3-aceb71ef49fc
1543784321.16602318s 1 87316946-ba27-41a8-a18b-96b296fb458d
