1542598910.865490529s 1 5c995a7f-a8d4-410d-b2db-fd49c28d1ec9
1542666275.357881361s 1 f6227687-ea2a-48cc-9fc3-aceb71ef49fc
1543011728.114777166s 1 e2a612d8-4829-48a2-88bd-46cf3c720040
1543697568.003251216s 0 f6227687-ea2a-48cc-9fc3-aceb71ef49fc
1543820918.694880828s 1 87316946-ba27-41a8-a18b-96b296fb458d
