1542598448.583108927s 1 5c995a7f-a8d4-410d-b2db-fd49c28d1ec9
1542664215.030101743s 1 f6227687-ea2a-48cc-9fc3-aceb71ef49fc
1542976204.962917718s 1 e2a612d8-4829-48a2-88bd-46cf3c720040
1543266660.162349819s 0 5c995a7f-a8d4-410d-b2db-fd49c28d1ec9
1543697563.197219535s 0 f6227687-ea2a-48cc-9fc3-aceb71ef49fc
1543788478.479805725s 1 87316946-ba27-41a8-a18b-96b296fb458d
