1542597931.022051983s 1 5c995a7f-a8d4-410d-b2db-fd49c28d1ec9
1542662019.895703226s 1 f6227687-ea2a-48cc-9fc3-aceb71ef49fc
1542938478.431543854s 1 e2a612d8-4829-48a2-88bd-46cf3c720040
1543299263.695939487s 1 5c995a7f-a8d4-410d-b2db-fd49c28d1ec9
1543697557.737459492s 0 f6227687-ea2a-48cc-9fc3-aceb71ef49fc
1543768573.532203986s 1 87316946-ba27-41a8-a18b-96b296fb458d
