1542598317.73821981s 1 5c995a7f-a8d4-410d-b2db-fd49c28d1ec9
1542663739.509230598s 1 f6227687-ea2a-48cc-9fc3-aceb71ef49fc
1542967313.526817389s 1 e2a612d8-4829-48a2-88bd-46cf3c720040
1543300698.679336188s 1 5c995a7f-a8d4-410d-b2db-fd49c28d1ec9
1543697561.752979911s 0 f6227687-ea2a-48cc-9fc3-aceb71ef49fc
1543774274.804458716s 1 87316946-ba27-41a8-a18b-96b296fb458d
