1542598675.24336497s 1 5c995a7f-a8d4-410d-b2db-fd49c28d1ec9
1542665202.981709796s 1 f6227687-ea2a-48cc-9fc3-aceb71ef49fc
1542992758.42855315s 1 e2a612d8-4829-48a2-88bd-46cf3c720040
1543285582.535503111s 0 5c995a7f-a8d4-410d-b2db-fd49c28d1ec9
1543697565.52917002s 0 f6227687-ea2a-48cc-9fc3-aceb71ef49fc
1543813251.963447423s 1 87316946-ba27-41a8-a18b-96b296fb458d
