1542596406.991555011s 1 5c995a7f-a8d4-410d-b2db-fd49c28d1ec9
1542655484.459336208s 1 f6227687-ea2a-48cc-9fc3-aceb71ef49fc
1542804579.621207614s 1 e2a612d8-4829-48a2-88bd-46cf3c720040
1543114238.876525617s 0 5c995a7f-a8d4-410d-b2db-fd49c28d1ec9
1543294292.684063585s 1 5c995a7f-a8d4-410d-b2db-fd49c28d1ec9
1543696970.522846974s 0 f6227687-ea2a-48cc-9fc3-aceb71ef49fc
1543749731.377626207s 1 87316946-ba27-41a8-a18b-96b296fb458d
