1542596301.743610209s 1 5c995a7f-a8d4-410d-b2db-fd49c28d1ec9
1542654914.00964517s 1 f6227687-ea2a-48cc-9fc3-aceb71ef49fc
1542795821.132272745s 1 e2a612d8-4829-48a2-88bd-46cf3c720040
1543102488.989113773s 0 5c995a7f-a8d4-410d-b2db-fd49c28d1ec9
1543293731.456215036s 1 5c995a7f-a8d4-410d-b2db-fd49c28d1ec9
1543696967.946075935s 0 f6227687-ea2a-48cc-9fc3-aceb71ef49fc
1543745383.982003412s 1 87316946-ba27-41a8-a18b-96b296fb458d
