1542598136.933530255s 1 5c995a7f-a8d4-410d-b2db-fd49c28d1ec9
1542663008.141760762s 1 f6227687-ea2a-48cc-9fc3-aceb71ef49fc
1542955429.25244887s 1 e2a612d8-4829-48a2-88bd-46cf3c720040
1543300274.128054287s 1 5c995a7f-a8d4-410d-b2db-fd49c28d1ec9
1543697559.750344931s 0 f6227687-ea2a-48cc-9fc3-aceb71ef49fc
1543769154.840516511s 1 87316946-ba27-41a8-a18b-96b296fb458d
