1542603103.527713348s 1 5c995a7f-a8d4-410d-b2db-fd49c28d1ec9
1542677841.868901895s 1 f6227687-ea2a-48cc-9fc3-aceb71ef49fc
1543697607.693053092s 0 f6227687-ea2a-48cc-9fc3-aceb71ef49fc
1543834610.990325563s 1 87316946-ba27-41a8-a18b-96b296fb458d
