1542596907.159362618s 1 5c995a7f-a8d4-410d-b2db-fd49c28d1ec9
1542657646.571001589s 1 f6227687-ea2a-48cc-9fc3-aceb71ef49fc
1542863202.283979297s 1 e2a612d8-4829-48a2-88bd-46cf3c720040
1543294978.842875988s 1 5c995a7f-a8d4-410d-b2db-fd49c28d1ec9
1543697546.954844961s 0 f6227687-ea2a-48cc-9fc3-aceb71ef49fc
1543765831.15593092s 1 87316946-ba27-41a8-a18b-96b296fb458d
