1542597078.305811616s 1 5c995a7f-a8d4-410d-b2db-fd49c28d1ec9
1542658398.005892662s 1 f6227687-ea2a-48cc-9fc3-aceb71ef49fc
1542875808.163749564s 1 e2a612d8-4829-48a2-88bd-46cf3c720040
1543295713.529122946s 1 5c995a7f-a8d4-410d-b2db-fd49c28d1ec9
1543697548.703523361s 0 f6227687-ea2a-48cc-9fc3-aceb71ef49fc
1543766357.337522264s 1 87316946-ba27-41a8-a18b-96b296fb458d
