1542603169.385207971s 1 5c995a7f-a8d4-410d-b2db-fd49c28d1ec9
1542677976.88274027s 1 f6227687-ea2a-48cc-9fc3-aceb71ef49fc
1543697608.432698422s 0 f6227687-ea2a-48cc-9fc3-aceb71ef49fc
1543834816.040764169s 1 87316946-ba27-41a8-a18b-96b296fb458d
