1542597210.956203235s 1 5c995a7f-a8d4-410d-b2db-fd49c28d1ec9
1542658966.979767177s 1 f6227687-ea2a-48cc-9fc3-aceb71ef49fc
1542884266.205660077s 1 e2a612d8-4829-48a2-88bd-46cf3c720040
1543296195.769020816s 1 5c995a7f-a8d4-410d-b2db-fd49c28d1ec9
1543697550.067790006s 0 f6227687-ea2a-48cc-9fc3-aceb71ef49fc
1543766688.616464805s 1 87316946-ba27-41a8-a18b-96b296fb458d
