1542600704.170399726s 1 5c995a7f-a8d4-410d-b2db-fd49c28d1ec9
1542671088.825933952s 1 f6227687-ea2a-48cc-9fc3-aceb71ef49fc
1543697587.015249763s 0 f6227687-ea2a-48cc-9fc3-aceb71ef49fc
1543827174.676845822s 1 87316946-ba27-41a8-a18b-96b296fb458d
