1542597454.208264654s 1 5c995a7f-a8d4-410d-b2db-fd49c28d1ec9
1542660091.745094468s 1 f6227687-ea2a-48cc-9fc3-aceb71ef49fc
1542903257.741701501s 1 e2a612d8-4829-48a2-88bd-46cf3c720040
1543297325.285332434s 1 5c995a7f-a8d4-410d-b2db-fd49c28d1ec9
1543697552.888006686s 0 f6227687-ea2a-48cc-9fc3-aceb71ef49fc
1543767373.311576296s 1 87316946-ba27-41a8-a18b-96b296fb458d
