1542602206.361720085s 1 5c995a7f-a8d4-410d-b2db-fd49c28d1ec9
1542675457.021585732s 1 f6227687-ea2a-48cc-9fc3-aceb71ef49fc
1543697600.510785312s 0 f6227687-ea2a-48cc-9fc3-aceb71ef49fc
1543832390.063526912s 1 87316946-ba27-41a8-a18b-96b296fb458d
