1542598448.297805662s 1 5c995a7f-a8d4-410d-b2db-fd49c28d1ec9
1542664213.794666266s 1 f6227687-ea2a-48cc-9fc3-aceb71ef49fc
1542981262.030077404s 1 e2a612d8-4829-48a2-88bd-46cf3c720040
1543266560.856130614s 0 5c995a7f-a8d4-410d-b2db-fd49c28d1ec9
1543697563.177558806s 0 f6227687-ea2a-48cc-9fc3-aceb71ef49fc
1543788408.195516857s 1 87316946-ba27-41a8-a18b-96b296fb458d
