1542609932.702970429s 1 5c995a7f-a8d4-410d-b2db-fd49c28d1ec9
1542696848.765772263s 1 f6227687-ea2a-48cc-9fc3-aceb71ef49fc
1543697687.733766188s 0 f6227687-ea2a-48cc-9fc3-aceb71ef49fc
1543847164.211978861s 1 87316946-ba27-41a8-a18b-96b296fb458d
