1542607526.086142621s 1 5c995a7f-a8d4-410d-b2db-fd49c28d1ec9
1542690351.686691748s 1 f6227687-ea2a-48cc-9fc3-aceb71ef49fc
1543697664.484562193s 0 f6227687-ea2a-48cc-9fc3-aceb71ef49fc
1543843627.492651315s 1 87316946-ba27-41a8-a18b-96b296fb458d
