1542603627.350781625s 1 5c995a7f-a8d4-410d-b2db-fd49c28d1ec9
1542678962.830028479s 1 f6227687-ea2a-48cc-9fc3-aceb71ef49fc
1543697612.607153063s 0 f6227687-ea2a-48cc-9fc3-aceb71ef49fc
1543835900.281512317s 1 87316946-ba27-41a8-a18b-96b296fb458d
