1542596995.400996616s 1 5c995a7f-a8d4-410d-b2db-fd49c28d1ec9
1542658028.083872071s 1 f6227687-ea2a-48cc-9fc3-aceb71ef49fc
1542867861.192387099s 1 e2a612d8-4829-48a2-88bd-46cf3c720040
1543295340.77535756s 1 5c995a7f-a8d4-410d-b2db-fd49c28d1ec9
1543697547.814570547s 0 f6227687-ea2a-48cc-9fc3-aceb71ef49fc
1543766087.229717053s 1 87316946-ba27-41a8-a18b-96b296fb458d
