1542609975.597773488s 1 5c995a7f-a8d4-410d-b2db-fd49c28d1ec9
1542696939.779361947s 1 f6227687-ea2a-48cc-9fc3-aceb71ef49fc
1543697688.458899101s 0 f6227687-ea2a-48cc-9fc3-aceb71ef49fc
1543847264.435520903s 1 87316946-ba27-41a8-a18b-96b296fb458d
