1542596441.691048916s 1 5c995a7f-a8d4-410d-b2db-fd49c28d1ec9
1542655556.528209516s 1 f6227687-ea2a-48cc-9fc3-aceb71ef49fc
1542807662.194012818s 1 e2a612d8-4829-48a2-88bd-46cf3c720040
1543117798.729887658s 0 5c995a7f-a8d4-410d-b2db-fd49c28d1ec9
1543294551.201017893s 1 5c995a7f-a8d4-410d-b2db-fd49c28d1ec9
1543696971.391543232s 0 f6227687-ea2a-48cc-9fc3-aceb71ef49fc
1543751071.976957192s 1 87316946-ba27-41a8-a18b-96b296fb458d
