1542598107.135792887s 1 5c995a7f-a8d4-410d-b2db-fd49c28d1ec9
1542662756.295828299s 1 f6227687-ea2a-48cc-9fc3-aceb71ef49fc
1542952354.14259411s 1 e2a612d8-4829-48a2-88bd-46cf3c720040
1543300155.07940635s 1 5c995a7f-a8d4-410d-b2db-fd49c28d1ec9
1543697559.40110667s 0 f6227687-ea2a-48cc-9fc3-aceb71ef49fc
1543768996.151380147s 1 87316946-ba27-41a8-a18b-96b296fb458d
