1542597780.418076488s 1 5c995a7f-a8d4-410d-b2db-fd49c28d1ec9
1542661437.892810005s 1 f6227687-ea2a-48cc-9fc3-aceb71ef49fc
1542927030.537263386s 1 e2a612d8-4829-48a2-88bd-46cf3c720040
1543298694.992940876s 1 5c995a7f-a8d4-410d-b2db-fd49c28d1ec9
1543697556.218572418s 0 f6227687-ea2a-48cc-9fc3-aceb71ef49fc
1543768189.940053882s 1 87316946-ba27-41a8-a18b-96b296fb458d
