1542596157.09120104s 1 5c995a7f-a8d4-410d-b2db-fd49c28d1ec9
1542654214.313960754s 1 f6227687-ea2a-48cc-9fc3-aceb71ef49fc
1542787698.431623698s 1 e2a612d8-4829-48a2-88bd-46cf3c720040
1543089000.755987603s 0 5c995a7f-a8d4-410d-b2db-fd49c28d1ec9
1543293164.823666286s 1 5c995a7f-a8d4-410d-b2db-fd49c28d1ec9
1543696963.390598397s 0 f6227687-ea2a-48cc-9fc3-aceb71ef49fc
1543740415.896545342s 1 87316946-ba27-41a8-a18b-96b296fb458d
