1542622342.212679745s 1 5c995a7f-a8d4-410d-b2db-fd49c28d1ec9
1542723203.678211362s 1 f6227687-ea2a-48cc-9fc3-aceb71ef49fc
1543697908.522982701s 0 f6227687-ea2a-48cc-9fc3-aceb71ef49fc
1543867258.803095405s 1 87316946-ba27-41a8-a18b-96b296fb458d
