1542596247.758256465s 1 5c995a7f-a8d4-410d-b2db-fd49c28d1ec9
1542654752.337704289s 1 f6227687-ea2a-48cc-9fc3-aceb71ef49fc
1542795134.749818981s 1 e2a612d8-4829-48a2-88bd-46cf3c720040
1543098036.935091281s 0 5c995a7f-a8d4-410d-b2db-fd49c28d1ec9
1543293514.741592901s 1 5c995a7f-a8d4-410d-b2db-fd49c28d1ec9
1543696966.30901019s 0 f6227687-ea2a-48cc-9fc3-aceb71ef49fc
1543743914.702557992s 1 87316946-ba27-41a8-a18b-96b296fb458d
