1542599412.516234097s 1 5c995a7f-a8d4-410d-b2db-fd49c28d1ec9
1542668540.671215304s 1 f6227687-ea2a-48cc-9fc3-aceb71ef49fc
1543229010.42135279s 1 e2a612d8-4829-48a2-88bd-46cf3c720040
1543697572.912234663s 0 f6227687-ea2a-48cc-9fc3-aceb71ef49fc
1543822471.059716589s 1 87316946-ba27-41a8-a18b-96b296fb458d
