1542600183.247680962s 1 5c995a7f-a8d4-410d-b2db-fd49c28d1ec9
1542670103.818901697s 1 f6227687-ea2a-48cc-9fc3-aceb71ef49fc
1543295469.494394093s 1 e2a612d8-4829-48a2-88bd-46cf3c720040
1543697580.887979789s 0 f6227687-ea2a-48cc-9fc3-aceb71ef49fc
1543825250.060892167s 1 87316946-ba27-41a8-a18b-96b296fb458d
