1542611026.157253171s 1 5c995a7f-a8d4-410d-b2db-fd49c28d1ec9
1542700078.600424675s 1 f6227687-ea2a-48cc-9fc3-aceb71ef49fc
1543697701.719391588s 0 f6227687-ea2a-48cc-9fc3-aceb71ef49fc
1543849041.987588881s 1 87316946-ba27-41a8-a18b-96b296fb458d
