1542598382.466393315s 1 5c995a7f-a8d4-410d-b2db-fd49c28d1ec9
1542663951.792560358s 1 f6227687-ea2a-48cc-9fc3-aceb71ef49fc
1542972451.63697936s 1 e2a612d8-4829-48a2-88bd-46cf3c720040
1543300707.296386409s 1 5c995a7f-a8d4-410d-b2db-fd49c28d1ec9
1543697562.625995s 0 f6227687-ea2a-48cc-9fc3-aceb71ef49fc
1543781462.610769464s 1 87316946-ba27-41a8-a18b-96b296fb458d
