1542598203.314095059s 1 5c995a7f-a8d4-410d-b2db-fd49c28d1ec9
1542663145.403657674s 1 f6227687-ea2a-48cc-9fc3-aceb71ef49fc
1542960390.371476876s 1 e2a612d8-4829-48a2-88bd-46cf3c720040
1543300554.424356693s 1 5c995a7f-a8d4-410d-b2db-fd49c28d1ec9
1543697560.878396894s 0 f6227687-ea2a-48cc-9fc3-aceb71ef49fc
1543769282.12781308s 1 87316946-ba27-41a8-a18b-96b296fb458d
