1542597481.75582418s 1 5c995a7f-a8d4-410d-b2db-fd49c28d1ec9
1542660174.489550935s 1 f6227687-ea2a-48cc-9fc3-aceb71ef49fc
1542905142.536909312s 1 e2a612d8-4829-48a2-88bd-46cf3c720040
1543297428.39176398s 1 5c995a7f-a8d4-410d-b2db-fd49c28d1ec9
1543697553.287725382s 0 f6227687-ea2a-48cc-9fc3-aceb71ef49fc
1543767423.85254271s 1 87316946-ba27-41a8-a18b-96b296fb458d
