1542622311.953650216s 1 5c995a7f-a8d4-410d-b2db-fd49c28d1ec9
1542723125.108660029s 1 f6227687-ea2a-48cc-9fc3-aceb71ef49fc
1543697907.808308437s 0 f6227687-ea2a-48cc-9fc3-aceb71ef49fc
1543867185.871241557s 1 87316946-ba27-41a8-a18b-96b296fb458d
