1542596087.072448253s 1 5c995a7f-a8d4-410d-b2db-fd49c28d1ec9
1542653996.754182497s 1 f6227687-ea2a-48cc-9fc3-aceb71ef49fc
1542780582.312170779s 1 e2a612d8-4829-48a2-88bd-46cf3c720040
1543081659.855476872s 0 5c995a7f-a8d4-410d-b2db-fd49c28d1ec9
1543292909.756169283s 1 5c995a7f-a8d4-410d-b2db-fd49c28d1ec9
1543696961.025692419s 0 f6227687-ea2a-48cc-9fc3-aceb71ef49fc
1543737338.068797699s 1 87316946-ba27-41a8-a18b-96b296fb458d
