1542595800.778085927s 1 5c995a7f-a8d4-410d-b2db-fd49c28d1ec9
1542652568.496622414s 1 f6227687-ea2a-48cc-9fc3-aceb71ef49fc
1542756130.354540061s 1 e2a612d8-4829-48a2-88bd-46cf3c720040
1543052859.276795596s 0 5c995a7f-a8d4-410d-b2db-fd49c28d1ec9
1543291562.18901329s 1 5c995a7f-a8d4-410d-b2db-fd49c28d1ec9
1543696938.407223414s 0 f6227687-ea2a-48cc-9fc3-aceb71ef49fc
1543725934.501369213s 1 87316946-ba27-41a8-a18b-96b296fb458d
