1542595888.099845618s 1 5c995a7f-a8d4-410d-b2db-fd49c28d1ec9
1542652965.792898879s 1 f6227687-ea2a-48cc-9fc3-aceb71ef49fc
1542763314.401467089s 1 e2a612d8-4829-48a2-88bd-46cf3c720040
1543062049.090082027s 0 5c995a7f-a8d4-410d-b2db-fd49c28d1ec9
1543291955.115836762s 1 5c995a7f-a8d4-410d-b2db-fd49c28d1ec9
1543696954.63879288s 0 f6227687-ea2a-48cc-9fc3-aceb71ef49fc
1543729333.200024052s 1 87316946-ba27-41a8-a18b-96b296fb458d
