1542620603.278915389s 1 5c995a7f-a8d4-410d-b2db-fd49c28d1ec9
1542720715.625476097s 1 f6227687-ea2a-48cc-9fc3-aceb71ef49fc
1543697894.027249098s 0 f6227687-ea2a-48cc-9fc3-aceb71ef49fc
1543864649.861025632s 1 87316946-ba27-41a8-a18b-96b296fb458d
