1542596334.509473516s 1 5c995a7f-a8d4-410d-b2db-fd49c28d1ec9
1542655143.1722731s 1 f6227687-ea2a-48cc-9fc3-aceb71ef49fc
1542799339.791861488s 1 e2a612d8-4829-48a2-88bd-46cf3c720040
1543106920.536877611s 0 5c995a7f-a8d4-410d-b2db-fd49c28d1ec9
1543293923.029975845s 1 5c995a7f-a8d4-410d-b2db-fd49c28d1ec9
1543696969.008705465s 0 f6227687-ea2a-48cc-9fc3-aceb71ef49fc
1543746929.662093184s 1 87316946-ba27-41a8-a18b-96b296fb458d
