1542604842.498418353s 1 5c995a7f-a8d4-410d-b2db-fd49c28d1ec9
1542682570.472153474s 1 f6227687-ea2a-48cc-9fc3-aceb71ef49fc
1543697627.133797992s 0 f6227687-ea2a-48cc-9fc3-aceb71ef49fc
1543838504.530560645s 1 87316946-ba27-41a8-a18b-96b296fb458d
