1542599883.855514405s 1 5c995a7f-a8d4-410d-b2db-fd49c28d1ec9
1542669524.383760873s 1 f6227687-ea2a-48cc-9fc3-aceb71ef49fc
1543268304.733175271s 1 e2a612d8-4829-48a2-88bd-46cf3c720040
1543697577.53847487s 0 f6227687-ea2a-48cc-9fc3-aceb71ef49fc
1543824174.998622187s 1 87316946-ba27-41a8-a18b-96b296fb458d
