1542602509.730977164s 1 5c995a7f-a8d4-410d-b2db-fd49c28d1ec9
1542676455.226857775s 1 f6227687-ea2a-48cc-9fc3-aceb71ef49fc
1543697602.06014215s 0 f6227687-ea2a-48cc-9fc3-aceb71ef49fc
1543833319.327335379s 1 87316946-ba27-41a8-a18b-96b296fb458d
