1542597682.281712136s 1 5c995a7f-a8d4-410d-b2db-fd49c28d1ec9
1542660959.060575578s 1 f6227687-ea2a-48cc-9fc3-aceb71ef49fc
1542919652.829045167s 1 e2a612d8-4829-48a2-88bd-46cf3c720040
1543298253.190811767s 1 5c995a7f-a8d4-410d-b2db-fd49c28d1ec9
1543697555.372967157s 0 f6227687-ea2a-48cc-9fc3-aceb71ef49fc
1543767892.190348593s 1 87316946-ba27-41a8-a18b-96b296fb458d
