1542596746.872624592s 1 5c995a7f-a8d4-410d-b2db-fd49c28d1ec9
1542656941.01806842s 1 f6227687-ea2a-48cc-9fc3-aceb71ef49fc
1543157046.957377587s 1 e2a612d8-4829-48a2-88bd-46cf3c720040
1543697545.569977217s 0 f6227687-ea2a-48cc-9fc3-aceb71ef49fc
1543765557.783140207s 1 87316946-ba27-41a8-a18b-96b296fb458d
