1542612244.375237994s 1 5c995a7f-a8d4-410d-b2db-fd49c28d1ec9
1542703093.809848814s 1 f6227687-ea2a-48cc-9fc3-aceb71ef49fc
1543697714.552589729s 0 f6227687-ea2a-48cc-9fc3-aceb71ef49fc
1543851086.162330361s 1 87316946-ba27-41a8-a18b-96b296fb458d
