1542625715.577912894s 1 5c995a7f-a8d4-410d-b2db-fd49c28d1ec9
1542727104.083001202s 1 f6227687-ea2a-48cc-9fc3-aceb71ef49fc
1543697929.843276276s 0 f6227687-ea2a-48cc-9fc3-aceb71ef49fc
1543872275.929564127s 1 87316946-ba27-41a8-a18b-96b296fb458d
