1542600308.31620116s 1 5c995a7f-a8d4-410d-b2db-fd49c28d1ec9
1542670362.438825905s 1 f6227687-ea2a-48cc-9fc3-aceb71ef49fc
1543697582.632704994s 0 f6227687-ea2a-48cc-9fc3-aceb71ef49fc
1543825806.027403053s 1 87316946-ba27-41a8-a18b-96b296fb458d
