1542597111.412595614s 1 5c995a7f-a8d4-410d-b2db-fd49c28d1ec9
1542658475.498291905s 1 f6227687-ea2a-48cc-9fc3-aceb71ef49fc
1542877176.699298599s 1 e2a612d8-4829-48a2-88bd-46cf3c720040
1543295842.828545221s 1 5c995a7f-a8d4-410d-b2db-fd49c28d1ec9
1543697548.944404342s 0 f6227687-ea2a-48cc-9fc3-aceb71ef49fc
1543766414.062454159s 1 87316946-ba27-41a8-a18b-96b296fb458d
