1542598323.707455133s 1 5c995a7f-a8d4-410d-b2db-fd49c28d1ec9
1542663754.324365388s 1 f6227687-ea2a-48cc-9fc3-aceb71ef49fc
1542967558.928523419s 1 e2a612d8-4829-48a2-88bd-46cf3c720040
1543255409.909965398s 0 5c995a7f-a8d4-410d-b2db-fd49c28d1ec9
1543697561.795487406s 0 f6227687-ea2a-48cc-9fc3-aceb71ef49fc
1543774817.041884294s 1 87316946-ba27-41a8-a18b-96b296fb458d
