1542598126.300242374s 1 5c995a7f-a8d4-410d-b2db-fd49c28d1ec9
1542662902.861944916s 1 f6227687-ea2a-48cc-9fc3-aceb71ef49fc
1542953551.118055384s 1 e2a612d8-4829-48a2-88bd-46cf3c720040
1543300232.479550227s 1 5c995a7f-a8d4-410d-b2db-fd49c28d1ec9
1543697559.650400096s 0 f6227687-ea2a-48cc-9fc3-aceb71ef49fc
1543769102.068007406s 1 87316946-ba27-41a8-a18b-96b296fb458d
