1542599137.602979792s 1 5c995a7f-a8d4-410d-b2db-fd49c28d1ec9
1542667092.740163758s 1 f6227687-ea2a-48cc-9fc3-aceb71ef49fc
1543205428.277727989s 1 e2a612d8-4829-48a2-88bd-46cf3c720040
1543697570.127679141s 0 f6227687-ea2a-48cc-9fc3-aceb71ef49fc
1543821502.54566952s 1 87316946-ba27-41a8-a18b-96b296fb458d
