1542598012.225265017s 1 5c995a7f-a8d4-410d-b2db-fd49c28d1ec9
1542662378.665144371s 1 f6227687-ea2a-48cc-9fc3-aceb71ef49fc
1542944705.637160717s 1 e2a612d8-4829-48a2-88bd-46cf3c720040
1543299648.714436671s 1 5c995a7f-a8d4-410d-b2db-fd49c28d1ec9
1543697558.479176539s 0 f6227687-ea2a-48cc-9fc3-aceb71ef49fc
1543768829.225086061s 1 87316946-ba27-41a8-a18b-96b296fb458d
