1542615128.463966389s 1 5c995a7f-a8d4-410d-b2db-fd49c28d1ec9
1542708313.3721035s 1 f6227687-ea2a-48cc-9fc3-aceb71ef49fc
1543697763.243044661s 0 f6227687-ea2a-48cc-9fc3-aceb71ef49fc
1543855390.964976972s 1 87316946-ba27-41a8-a18b-96b296fb458d
