1542597291.899510882s 1 5c995a7f-a8d4-410d-b2db-fd49c28d1ec9
1542659322.699001976s 1 f6227687-ea2a-48cc-9fc3-aceb71ef49fc
1542889759.824859473s 1 e2a612d8-4829-48a2-88bd-46cf3c720040
1543296545.046427093s 1 5c995a7f-a8d4-410d-b2db-fd49c28d1ec9
1543697551.022222226s 0 f6227687-ea2a-48cc-9fc3-aceb71ef49fc
1543766839.696688421s 1 87316946-ba27-41a8-a18b-96b296fb458d
