1542607450.27123954s 1 5c995a7f-a8d4-410d-b2db-fd49c28d1ec9
1542690190.507723699s 1 f6227687-ea2a-48cc-9fc3-aceb71ef49fc
1543697663.435813289s 0 f6227687-ea2a-48cc-9fc3-aceb71ef49fc
1543843474.701676986s 1 87316946-ba27-41a8-a18b-96b296fb458d
