1542595720.415378149s 1 5c995a7f-a8d4-410d-b2db-fd49c28d1ec9
1542652230.874048163s 1 f6227687-ea2a-48cc-9fc3-aceb71ef49fc
1542750327.840996136s 1 e2a612d8-4829-48a2-88bd-46cf3c720040
1543042701.565774087s 0 5c995a7f-a8d4-410d-b2db-fd49c28d1ec9
1543291256.253223521s 1 5c995a7f-a8d4-410d-b2db-fd49c28d1ec9
1543710111.692916966s 1 87316946-ba27-41a8-a18b-96b296fb458d
1543711498.395874967s 1 f6227687-ea2a-48cc-9fc3-aceb71ef49fc
