1542599467.358504597s 1 5c995a7f-a8d4-410d-b2db-fd49c28d1ec9
1542668668.578724791s 1 f6227687-ea2a-48cc-9fc3-aceb71ef49fc
1543233939.488265167s 1 e2a612d8-4829-48a2-88bd-46cf3c720040
1543697573.369285829s 0 f6227687-ea2a-48cc-9fc3-aceb71ef49fc
1543822769.571326741s 1 87316946-ba27-41a8-a18b-96b296fb458d
