1542613626.425834255s 1 5c995a7f-a8d4-410d-b2db-fd49c28d1ec9
1542705925.431673439s 1 f6227687-ea2a-48cc-9fc3-aceb71ef49fc
1543697747.998436741s 0 f6227687-ea2a-48cc-9fc3-aceb71ef49fc
1543852705.029619582s 1 87316946-ba27-41a8-a18b-96b296fb458d
