1542596785.808356654s 1 5c995a7f-a8d4-410d-b2db-fd49c28d1ec9
1542657016.321482651s 1 f6227687-ea2a-48cc-9fc3-aceb71ef49fc
1543160029.315342248s 1 e2a612d8-4829-48a2-88bd-46cf3c720040
1543697545.969154624s 0 f6227687-ea2a-48cc-9fc3-aceb71ef49fc
1543765621.119717871s 1 87316946-ba27-41a8-a18b-96b296fb458d
