1542595767.42377838s 1 5c995a7f-a8d4-410d-b2db-fd49c28d1ec9
1542652309.493714648s 1 f6227687-ea2a-48cc-9fc3-aceb71ef49fc
1542753229.314081424s 1 e2a612d8-4829-48a2-88bd-46cf3c720040
1543048281.190109778s 0 5c995a7f-a8d4-410d-b2db-fd49c28d1ec9
1543291421.569938076s 1 5c995a7f-a8d4-410d-b2db-fd49c28d1ec9
1543696934.138273714s 0 f6227687-ea2a-48cc-9fc3-aceb71ef49fc
1543724597.174171277s 1 87316946-ba27-41a8-a18b-96b296fb458d
