1542599685.815985806s 1 5c995a7f-a8d4-410d-b2db-fd49c28d1ec9
1542669165.169495766s 1 f6227687-ea2a-48cc-9fc3-aceb71ef49fc
1543253753.112374047s 1 e2a612d8-4829-48a2-88bd-46cf3c720040
1543697575.759089232s 0 f6227687-ea2a-48cc-9fc3-aceb71ef49fc
1543823359.324028061s 1 87316946-ba27-41a8-a18b-96b296fb458d
