1542611074.617675151s 1 5c995a7f-a8d4-410d-b2db-fd49c28d1ec9
1542700186.618476786s 1 f6227687-ea2a-48cc-9fc3-aceb71ef49fc
1543697702.754334805s 0 f6227687-ea2a-48cc-9fc3-aceb71ef49fc
1543849159.720200468s 1 87316946-ba27-41a8-a18b-96b296fb458d
