1542596206.116053844s 1 5c995a7f-a8d4-410d-b2db-fd49c28d1ec9
1542654467.146345369s 1 f6227687-ea2a-48cc-9fc3-aceb71ef49fc
1542789125.085939459s 1 e2a612d8-4829-48a2-88bd-46cf3c720040
1543093432.86938571s 0 5c995a7f-a8d4-410d-b2db-fd49c28d1ec9
1543293345.919403291s 1 5c995a7f-a8d4-410d-b2db-fd49c28d1ec9
1543696964.755397791s 0 f6227687-ea2a-48cc-9fc3-aceb71ef49fc
1543741669.289237269s 1 87316946-ba27-41a8-a18b-96b296fb458d
