1542599141.800603928s 1 5c995a7f-a8d4-410d-b2db-fd49c28d1ec9
1542667103.228497289s 1 f6227687-ea2a-48cc-9fc3-aceb71ef49fc
1543023421.925659633s 1 e2a612d8-4829-48a2-88bd-46cf3c720040
1543697570.257415219s 0 f6227687-ea2a-48cc-9fc3-aceb71ef49fc
1543821537.709090032s 1 87316946-ba27-41a8-a18b-96b296fb458d
