1542597157.849150131s 1 5c995a7f-a8d4-410d-b2db-fd49c28d1ec9
1542658758.70706853s 1 f6227687-ea2a-48cc-9fc3-aceb71ef49fc
1542880910.327030614s 1 e2a612d8-4829-48a2-88bd-46cf3c720040
1543296044.021823863s 1 5c995a7f-a8d4-410d-b2db-fd49c28d1ec9
1543697549.496663102s 0 f6227687-ea2a-48cc-9fc3-aceb71ef49fc
1543766556.592966007s 1 87316946-ba27-41a8-a18b-96b296fb458d
