1542630714.130504981s 1 5c995a7f-a8d4-410d-b2db-fd49c28d1ec9
1542731520.62998601s 1 f6227687-ea2a-48cc-9fc3-aceb71ef49fc
1543697955.405735723s 0 f6227687-ea2a-48cc-9fc3-aceb71ef49fc
1543878769.970612097s 1 87316946-ba27-41a8-a18b-96b296fb458d
