1542620157.786355935s 1 5c995a7f-a8d4-410d-b2db-fd49c28d1ec9
1542719560.338228199s 1 f6227687-ea2a-48cc-9fc3-aceb71ef49fc
1543697888.629393274s 0 f6227687-ea2a-48cc-9fc3-aceb71ef49fc
1543863711.724342841s 1 87316946-ba27-41a8-a18b-96b296fb458d
