1542597303.708567222s 1 5c995a7f-a8d4-410d-b2db-fd49c28d1ec9
1542659429.400575054s 1 f6227687-ea2a-48cc-9fc3-aceb71ef49fc
1542890905.554211838s 1 e2a612d8-4829-48a2-88bd-46cf3c720040
1543296650.004621241s 1 5c995a7f-a8d4-410d-b2db-fd49c28d1ec9
1543697551.169202146s 0 f6227687-ea2a-48cc-9fc3-aceb71ef49fc
1543766911.975257354s 1 87316946-ba27-41a8-a18b-96b296fb458d
