1542597815.468720853s 1 5c995a7f-a8d4-410d-b2db-fd49c28d1ec9
1542661617.977224397s 1 f6227687-ea2a-48cc-9fc3-aceb71ef49fc
1542930189.177533685s 1 e2a612d8-4829-48a2-88bd-46cf3c720040
1543298850.186513381s 1 5c995a7f-a8d4-410d-b2db-fd49c28d1ec9
1543697556.641616408s 0 f6227687-ea2a-48cc-9fc3-aceb71ef49fc
1543768266.684005679s 1 87316946-ba27-41a8-a18b-96b296fb458d
