1542599945.265614139s 1 5c995a7f-a8d4-410d-b2db-fd49c28d1ec9
1542669663.529955816s 1 f6227687-ea2a-48cc-9fc3-aceb71ef49fc
1543274711.594334029s 1 e2a612d8-4829-48a2-88bd-46cf3c720040
1543697578.514294653s 0 f6227687-ea2a-48cc-9fc3-aceb71ef49fc
1543824363.759786394s 1 87316946-ba27-41a8-a18b-96b296fb458d
