1542607578.338252881s 1 5c995a7f-a8d4-410d-b2db-fd49c28d1ec9
1542690462.70743624s 1 f6227687-ea2a-48cc-9fc3-aceb71ef49fc
1543697665.046833241s 0 f6227687-ea2a-48cc-9fc3-aceb71ef49fc
1543843727.859953126s 1 87316946-ba27-41a8-a18b-96b296fb458d
