1542599430.951991224s 1 5c995a7f-a8d4-410d-b2db-fd49c28d1ec9
1542668585.458485358s 1 f6227687-ea2a-48cc-9fc3-aceb71ef49fc
1543230319.827971771s 1 e2a612d8-4829-48a2-88bd-46cf3c720040
1543697573.087563229s 0 f6227687-ea2a-48cc-9fc3-aceb71ef49fc
1543822596.517294033s 1 87316946-ba27-41a8-a18b-96b296fb458d
