1542605196.357575997s 1 5c995a7f-a8d4-410d-b2db-fd49c28d1ec9
1542684323.186302944s 1 f6227687-ea2a-48cc-9fc3-aceb71ef49fc
1543697631.163714348s 0 f6227687-ea2a-48cc-9fc3-aceb71ef49fc
1543839333.147575617s 1 87316946-ba27-41a8-a18b-96b296fb458d
