1542614739.480456811s 1 5c995a7f-a8d4-410d-b2db-fd49c28d1ec9
1542707803.905599706s 1 f6227687-ea2a-48cc-9fc3-aceb71ef49fc
1543697760.120228075s 0 f6227687-ea2a-48cc-9fc3-aceb71ef49fc
1543854646.25847214s 1 87316946-ba27-41a8-a18b-96b296fb458d
