1542597852.374968466s 1 5c995a7f-a8d4-410d-b2db-fd49c28d1ec9
1542661698.28458894s 1 f6227687-ea2a-48cc-9fc3-aceb71ef49fc
1542934940.453340939s 1 e2a612d8-4829-48a2-88bd-46cf3c720040
1543299015.318299478s 1 5c995a7f-a8d4-410d-b2db-fd49c28d1ec9
1543697557.236073697s 0 f6227687-ea2a-48cc-9fc3-aceb71ef49fc
1543768449.23836427s 1 87316946-ba27-41a8-a18b-96b296fb458d
