1542596394.012169776s 1 5c995a7f-a8d4-410d-b2db-fd49c28d1ec9
1542655453.663635468s 1 f6227687-ea2a-48cc-9fc3-aceb71ef49fc
1542803934.312870947s 1 e2a612d8-4829-48a2-88bd-46cf3c720040
1543112719.552075422s 0 5c995a7f-a8d4-410d-b2db-fd49c28d1ec9
1543294197.552112478s 1 5c995a7f-a8d4-410d-b2db-fd49c28d1ec9
1543696970.159039319s 0 f6227687-ea2a-48cc-9fc3-aceb71ef49fc
1543749170.381160631s 1 87316946-ba27-41a8-a18b-96b296fb458d
