1542610256.024622096s 1 5c995a7f-a8d4-410d-b2db-fd49c28d1ec9
1542697635.441885619s 1 f6227687-ea2a-48cc-9fc3-aceb71ef49fc
1543697694.108331172s 0 f6227687-ea2a-48cc-9fc3-aceb71ef49fc
1543847615.301291518s 1 87316946-ba27-41a8-a18b-96b296fb458d
