1542610771.385692782s 1 5c995a7f-a8d4-410d-b2db-fd49c28d1ec9
1542699424.101050778s 1 f6227687-ea2a-48cc-9fc3-aceb71ef49fc
1543697699.792583697s 0 f6227687-ea2a-48cc-9fc3-aceb71ef49fc
1543848590.537808701s 1 87316946-ba27-41a8-a18b-96b296fb458d
