1542598184.759238032s 1 5c995a7f-a8d4-410d-b2db-fd49c28d1ec9
1542663113.624677794s 1 f6227687-ea2a-48cc-9fc3-aceb71ef49fc
1542958990.718730483s 1 e2a612d8-4829-48a2-88bd-46cf3c720040
1543300488.589147091s 1 5c995a7f-a8d4-410d-b2db-fd49c28d1ec9
1543697560.575463902s 0 f6227687-ea2a-48cc-9fc3-aceb71ef49fc
1543769252.56040589s 1 87316946-ba27-41a8-a18b-96b296fb458d
