1542605340.772999942s 1 5c995a7f-a8d4-410d-b2db-fd49c28d1ec9
1542686548.997286039s 1 f6227687-ea2a-48cc-9fc3-aceb71ef49fc
1543697633.367196069s 0 f6227687-ea2a-48cc-9fc3-aceb71ef49fc
1543839805.358506247s 1 87316946-ba27-41a8-a18b-96b296fb458d
