1542618427.212383683s 1 5c995a7f-a8d4-410d-b2db-fd49c28d1ec9
1542715594.745496242s 1 f6227687-ea2a-48cc-9fc3-aceb71ef49fc
1543697868.577521542s 0 f6227687-ea2a-48cc-9fc3-aceb71ef49fc
1543861057.427852596s 1 87316946-ba27-41a8-a18b-96b296fb458d
