1542596078.908615112s 1 5c995a7f-a8d4-410d-b2db-fd49c28d1ec9
1542653854.611767199s 1 f6227687-ea2a-48cc-9fc3-aceb71ef49fc
1542782087.767706221s 1 e2a612d8-4829-48a2-88bd-46cf3c720040
1543080749.480623097s 0 5c995a7f-a8d4-410d-b2db-fd49c28d1ec9
1543292872.529520626s 1 5c995a7f-a8d4-410d-b2db-fd49c28d1ec9
1543696960.792924651s 0 f6227687-ea2a-48cc-9fc3-aceb71ef49fc
1543737532.033305454s 1 87316946-ba27-41a8-a18b-96b296fb458d
