1542616200.617675959s 1 5c995a7f-a8d4-410d-b2db-fd49c28d1ec9
1542709943.565008735s 1 f6227687-ea2a-48cc-9fc3-aceb71ef49fc
1543697774.013901915s 0 f6227687-ea2a-48cc-9fc3-aceb71ef49fc
1543857428.69116471s 1 87316946-ba27-41a8-a18b-96b296fb458d
