1542595728.061121308s 1 5c995a7f-a8d4-410d-b2db-fd49c28d1ec9
1542652244.446533765s 1 f6227687-ea2a-48cc-9fc3-aceb71ef49fc
1542752746.416741359s 1 e2a612d8-4829-48a2-88bd-46cf3c720040
1543043661.369049904s 0 5c995a7f-a8d4-410d-b2db-fd49c28d1ec9
1543291285.952910503s 1 5c995a7f-a8d4-410d-b2db-fd49c28d1ec9
1543710601.290278705s 1 87316946-ba27-41a8-a18b-96b296fb458d
1543711515.996548099s 1 f6227687-ea2a-48cc-9fc3-aceb71ef49fc
