1542604608.948805041s 1 5c995a7f-a8d4-410d-b2db-fd49c28d1ec9
1542681818.76753304s 1 f6227687-ea2a-48cc-9fc3-aceb71ef49fc
1543697625.375316766s 0 f6227687-ea2a-48cc-9fc3-aceb71ef49fc
1543838068.125008624s 1 87316946-ba27-41a8-a18b-96b296fb458d
