1542618749.046134035s 1 5c995a7f-a8d4-410d-b2db-fd49c28d1ec9
1542716328.748717778s 1 f6227687-ea2a-48cc-9fc3-aceb71ef49fc
1543697871.940746604s 0 f6227687-ea2a-48cc-9fc3-aceb71ef49fc
1543861497.222956424s 1 87316946-ba27-41a8-a18b-96b296fb458d
