1542595917.551524822s 1 5c995a7f-a8d4-410d-b2db-fd49c28d1ec9
1542653032.631193327s 1 f6227687-ea2a-48cc-9fc3-aceb71ef49fc
1542763915.767335046s 1 e2a612d8-4829-48a2-88bd-46cf3c720040
1543064771.023287718s 0 5c995a7f-a8d4-410d-b2db-fd49c28d1ec9
1543292101.669312336s 1 5c995a7f-a8d4-410d-b2db-fd49c28d1ec9
1543696955.29744074s 0 f6227687-ea2a-48cc-9fc3-aceb71ef49fc
1543730292.016342608s 1 87316946-ba27-41a8-a18b-96b296fb458d
