1542596900.609022925s 1 5c995a7f-a8d4-410d-b2db-fd49c28d1ec9
1542657634.099945876s 1 f6227687-ea2a-48cc-9fc3-aceb71ef49fc
1542860614.358173447s 1 e2a612d8-4829-48a2-88bd-46cf3c720040
1543294949.781078199s 1 5c995a7f-a8d4-410d-b2db-fd49c28d1ec9
1543697546.857179522s 0 f6227687-ea2a-48cc-9fc3-aceb71ef49fc
1543765776.403195984s 1 87316946-ba27-41a8-a18b-96b296fb458d
