1542599561.604444142s 1 5c995a7f-a8d4-410d-b2db-fd49c28d1ec9
1542668888.239016794s 1 f6227687-ea2a-48cc-9fc3-aceb71ef49fc
1543242640.912248523s 1 e2a612d8-4829-48a2-88bd-46cf3c720040
1543697574.512230974s 0 f6227687-ea2a-48cc-9fc3-aceb71ef49fc
1543823113.378485386s 1 87316946-ba27-41a8-a18b-96b296fb458d
