1542595612.952925334s 1 5c995a7f-a8d4-410d-b2db-fd49c28d1ec9
1542651604.943095795s 1 f6227687-ea2a-48cc-9fc3-aceb71ef49fc
1542744662.221941979s 1 e2a612d8-4829-48a2-88bd-46cf3c720040
1543031109.380009975s 0 5c995a7f-a8d4-410d-b2db-fd49c28d1ec9
1543290716.518412983s 1 5c995a7f-a8d4-410d-b2db-fd49c28d1ec9
1543704566.67079381s 1 87316946-ba27-41a8-a18b-96b296fb458d
1543706426.96513943s 1 f6227687-ea2a-48cc-9fc3-aceb71ef49fc
