1542598448.613735568s 1 5c995a7f-a8d4-410d-b2db-fd49c28d1ec9
1542664215.387824634s 1 f6227687-ea2a-48cc-9fc3-aceb71ef49fc
1542976271.003195766s 1 e2a612d8-4829-48a2-88bd-46cf3c720040
1543266689.981607698s 0 5c995a7f-a8d4-410d-b2db-fd49c28d1ec9
1543697563.210666984s 0 f6227687-ea2a-48cc-9fc3-aceb71ef49fc
1543788533.878172112s 1 87316946-ba27-41a8-a18b-96b296fb458d
