1542596327.988867903s 1 5c995a7f-a8d4-410d-b2db-fd49c28d1ec9
1542655132.476276476s 1 f6227687-ea2a-48cc-9fc3-aceb71ef49fc
1542799103.516622668s 1 e2a612d8-4829-48a2-88bd-46cf3c720040
1543106132.933903807s 0 5c995a7f-a8d4-410d-b2db-fd49c28d1ec9
1543293879.174266657s 1 5c995a7f-a8d4-410d-b2db-fd49c28d1ec9
1543696968.868261293s 0 f6227687-ea2a-48cc-9fc3-aceb71ef49fc
1543746842.338239263s 1 87316946-ba27-41a8-a18b-96b296fb458d
