1542596179.379724692s 1 5c995a7f-a8d4-410d-b2db-fd49c28d1ec9
1542654414.938693522s 1 f6227687-ea2a-48cc-9fc3-aceb71ef49fc
1542786960.706967094s 1 e2a612d8-4829-48a2-88bd-46cf3c720040
1543090859.783245206s 0 5c995a7f-a8d4-410d-b2db-fd49c28d1ec9
1543293245.718989815s 1 5c995a7f-a8d4-410d-b2db-fd49c28d1ec9
1543696963.893792459s 0 f6227687-ea2a-48cc-9fc3-aceb71ef49fc
1543740695.503182386s 1 87316946-ba27-41a8-a18b-96b296fb458d
