1542599915.143425908s 1 5c995a7f-a8d4-410d-b2db-fd49c28d1ec9
1542669590.325268344s 1 f6227687-ea2a-48cc-9fc3-aceb71ef49fc
1543272080.487516317s 1 e2a612d8-4829-48a2-88bd-46cf3c720040
1543697577.908825332s 0 f6227687-ea2a-48cc-9fc3-aceb71ef49fc
1543824300.0142255s 1 87316946-ba27-41a8-a18b-96b296fb458d
