1542597399.800669658s 1 5c995a7f-a8d4-410d-b2db-fd49c28d1ec9
1542659811.050096339s 1 f6227687-ea2a-48cc-9fc3-aceb71ef49fc
1542898711.464531192s 1 e2a612d8-4829-48a2-88bd-46cf3c720040
1543297033.978888033s 1 5c995a7f-a8d4-410d-b2db-fd49c28d1ec9
1543697552.293846035s 0 f6227687-ea2a-48cc-9fc3-aceb71ef49fc
1543767140.839071711s 1 87316946-ba27-41a8-a18b-96b296fb458d
