1542597664.076020453s 1 5c995a7f-a8d4-410d-b2db-fd49c28d1ec9
1542660920.97641146s 1 f6227687-ea2a-48cc-9fc3-aceb71ef49fc
1542917405.75676536s 1 e2a612d8-4829-48a2-88bd-46cf3c720040
1543298180.291740561s 1 5c995a7f-a8d4-410d-b2db-fd49c28d1ec9
1543697555.161412178s 0 f6227687-ea2a-48cc-9fc3-aceb71ef49fc
1543767851.848102353s 1 87316946-ba27-41a8-a18b-96b296fb458d
