1542606061.376365943s 1 5c995a7f-a8d4-410d-b2db-fd49c28d1ec9
1542687781.875403682s 1 f6227687-ea2a-48cc-9fc3-aceb71ef49fc
1543697647.83862347s 0 f6227687-ea2a-48cc-9fc3-aceb71ef49fc
1543841254.495299521s 1 87316946-ba27-41a8-a18b-96b296fb458d
