1542598149.546711198s 1 5c995a7f-a8d4-410d-b2db-fd49c28d1ec9
1542663034.901619708s 1 f6227687-ea2a-48cc-9fc3-aceb71ef49fc
1542955609.697338175s 1 e2a612d8-4829-48a2-88bd-46cf3c720040
1543300328.034089123s 1 5c995a7f-a8d4-410d-b2db-fd49c28d1ec9
1543697559.944580554s 0 f6227687-ea2a-48cc-9fc3-aceb71ef49fc
1543769180.576545074s 1 87316946-ba27-41a8-a18b-96b296fb458d
