1542598675.045809958s 1 5c995a7f-a8d4-410d-b2db-fd49c28d1ec9
1542665202.01755487s 1 f6227687-ea2a-48cc-9fc3-aceb71ef49fc
1542993533.441330046s 1 e2a612d8-4829-48a2-88bd-46cf3c720040
1543285476.878177983s 0 5c995a7f-a8d4-410d-b2db-fd49c28d1ec9
1543697565.509856918s 0 f6227687-ea2a-48cc-9fc3-aceb71ef49fc
1543813197.124822729s 1 87316946-ba27-41a8-a18b-96b296fb458d
