1542597610.360786333s 1 5c995a7f-a8d4-410d-b2db-fd49c28d1ec9
1542660611.354603763s 1 f6227687-ea2a-48cc-9fc3-aceb71ef49fc
1542913842.422815387s 1 e2a612d8-4829-48a2-88bd-46cf3c720040
1543297949.838597418s 1 5c995a7f-a8d4-410d-b2db-fd49c28d1ec9
1543697554.536607844s 0 f6227687-ea2a-48cc-9fc3-aceb71ef49fc
1543767749.411852423s 1 87316946-ba27-41a8-a18b-96b296fb458d
