1542621760.009189091s 1 5c995a7f-a8d4-410d-b2db-fd49c28d1ec9
1542722535.481330855s 1 f6227687-ea2a-48cc-9fc3-aceb71ef49fc
1543697902.980056382s 0 f6227687-ea2a-48cc-9fc3-aceb71ef49fc
1543866411.048354801s 1 87316946-ba27-41a8-a18b-96b296fb458d
