1542596346.720047042s 1 5c995a7f-a8d4-410d-b2db-fd49c28d1ec9
1542655171.64091764s 1 f6227687-ea2a-48cc-9fc3-aceb71ef49fc
1542799566.344875109s 1 e2a612d8-4829-48a2-88bd-46cf3c720040
1543107899.473423472s 0 5c995a7f-a8d4-410d-b2db-fd49c28d1ec9
1543293979.126122804s 1 5c995a7f-a8d4-410d-b2db-fd49c28d1ec9
1543696969.111273084s 0 f6227687-ea2a-48cc-9fc3-aceb71ef49fc
1543746989.22927766s 1 87316946-ba27-41a8-a18b-96b296fb458d
