1542599814.618681386s 1 5c995a7f-a8d4-410d-b2db-fd49c28d1ec9
1542669372.249992408s 1 f6227687-ea2a-48cc-9fc3-aceb71ef49fc
1543262576.89076467s 1 e2a612d8-4829-48a2-88bd-46cf3c720040
1543697576.919979115s 0 f6227687-ea2a-48cc-9fc3-aceb71ef49fc
1543823823.048994808s 1 87316946-ba27-41a8-a18b-96b296fb458d
