1542597383.641801484s 1 5c995a7f-a8d4-410d-b2db-fd49c28d1ec9
1542659780.38608082s 1 f6227687-ea2a-48cc-9fc3-aceb71ef49fc
1542897558.463186156s 1 e2a612d8-4829-48a2-88bd-46cf3c720040
1543296971.446947806s 1 5c995a7f-a8d4-410d-b2db-fd49c28d1ec9
1543697552.113542686s 0 f6227687-ea2a-48cc-9fc3-aceb71ef49fc
1543767116.045839662s 1 87316946-ba27-41a8-a18b-96b296fb458d
