1542614003.900981186s 1 5c995a7f-a8d4-410d-b2db-fd49c28d1ec9
1542706651.913363278s 1 f6227687-ea2a-48cc-9fc3-aceb71ef49fc
1543697750.182147343s 0 f6227687-ea2a-48cc-9fc3-aceb71ef49fc
1543853350.887238126s 1 87316946-ba27-41a8-a18b-96b296fb458d
