1542602489.418747684s 1 5c995a7f-a8d4-410d-b2db-fd49c28d1ec9
1542676415.456952828s 1 f6227687-ea2a-48cc-9fc3-aceb71ef49fc
1543697601.831134743s 0 f6227687-ea2a-48cc-9fc3-aceb71ef49fc
1543833253.688687398s 1 87316946-ba27-41a8-a18b-96b296fb458d
