1542597166.307686777s 1 5c995a7f-a8d4-410d-b2db-fd49c28d1ec9
1542658776.502012282s 1 f6227687-ea2a-48cc-9fc3-aceb71ef49fc
1542882111.489898868s 1 e2a612d8-4829-48a2-88bd-46cf3c720040
1543296075.356492145s 1 5c995a7f-a8d4-410d-b2db-fd49c28d1ec9
1543697549.661955405s 0 f6227687-ea2a-48cc-9fc3-aceb71ef49fc
1543766612.486379675s 1 87316946-ba27-41a8-a18b-96b296fb458d
