1542598655.533370402s 1 5c995a7f-a8d4-410d-b2db-fd49c28d1ec9
1542665161.575582792s 1 f6227687-ea2a-48cc-9fc3-aceb71ef49fc
1542991606.8662808s 1 e2a612d8-4829-48a2-88bd-46cf3c720040
1543283559.546390399s 0 5c995a7f-a8d4-410d-b2db-fd49c28d1ec9
1543697565.249756711s 0 f6227687-ea2a-48cc-9fc3-aceb71ef49fc
1543810633.311568819s 1 87316946-ba27-41a8-a18b-96b296fb458d
