1542597517.485679225s 1 5c995a7f-a8d4-410d-b2db-fd49c28d1ec9
1542660252.298316602s 1 f6227687-ea2a-48cc-9fc3-aceb71ef49fc
1542907684.596438294s 1 e2a612d8-4829-48a2-88bd-46cf3c720040
1543297574.468048233s 1 5c995a7f-a8d4-410d-b2db-fd49c28d1ec9
1543697553.728128107s 0 f6227687-ea2a-48cc-9fc3-aceb71ef49fc
1543767493.380074012s 1 87316946-ba27-41a8-a18b-96b296fb458d
