1542598001.02380684s 1 5c995a7f-a8d4-410d-b2db-fd49c28d1ec9
1542662358.246645103s 1 f6227687-ea2a-48cc-9fc3-aceb71ef49fc
1542944070.647051783s 1 e2a612d8-4829-48a2-88bd-46cf3c720040
1543299609.148251009s 1 5c995a7f-a8d4-410d-b2db-fd49c28d1ec9
1543697558.450226091s 0 f6227687-ea2a-48cc-9fc3-aceb71ef49fc
1543768811.691476945s 1 87316946-ba27-41a8-a18b-96b296fb458d
