1542596845.218191451s 1 5c995a7f-a8d4-410d-b2db-fd49c28d1ec9
1542657322.762498153s 1 f6227687-ea2a-48cc-9fc3-aceb71ef49fc
1542856213.955680105s 1 e2a612d8-4829-48a2-88bd-46cf3c720040
1543122640.822256906s 0 5c995a7f-a8d4-410d-b2db-fd49c28d1ec9
1543294718.343402214s 1 5c995a7f-a8d4-410d-b2db-fd49c28d1ec9
1543697546.358230942s 0 f6227687-ea2a-48cc-9fc3-aceb71ef49fc
1543752208.330094624s 1 87316946-ba27-41a8-a18b-96b296fb458d
