1542595805.226474899s 1 5c995a7f-a8d4-410d-b2db-fd49c28d1ec9
1542652578.410112911s 1 f6227687-ea2a-48cc-9fc3-aceb71ef49fc
1542756403.581189472s 1 e2a612d8-4829-48a2-88bd-46cf3c720040
1543053526.408612529s 0 5c995a7f-a8d4-410d-b2db-fd49c28d1ec9
1543291580.765055595s 1 5c995a7f-a8d4-410d-b2db-fd49c28d1ec9
1543696939.039576512s 0 f6227687-ea2a-48cc-9fc3-aceb71ef49fc
1543726148.375861111s 1 87316946-ba27-41a8-a18b-96b296fb458d
