1542596074.775500091s 1 5c995a7f-a8d4-410d-b2db-fd49c28d1ec9
1542653784.452954276s 1 f6227687-ea2a-48cc-9fc3-aceb71ef49fc
1542781051.722213012s 1 e2a612d8-4829-48a2-88bd-46cf3c720040
1543080206.972952389s 0 5c995a7f-a8d4-410d-b2db-fd49c28d1ec9
1543292852.549291092s 1 5c995a7f-a8d4-410d-b2db-fd49c28d1ec9
1543696960.537851457s 0 f6227687-ea2a-48cc-9fc3-aceb71ef49fc
1543737166.643835468s 1 87316946-ba27-41a8-a18b-96b296fb458d
