1542596247.940209447s 1 5c995a7f-a8d4-410d-b2db-fd49c28d1ec9
1542654753.246265109s 1 f6227687-ea2a-48cc-9fc3-aceb71ef49fc
1542792652.98212083s 1 e2a612d8-4829-48a2-88bd-46cf3c720040
1543098096.126068281s 0 5c995a7f-a8d4-410d-b2db-fd49c28d1ec9
1543293515.770166958s 1 5c995a7f-a8d4-410d-b2db-fd49c28d1ec9
1543696966.431512909s 0 f6227687-ea2a-48cc-9fc3-aceb71ef49fc
1543743350.305237628s 1 87316946-ba27-41a8-a18b-96b296fb458d
