1542597490.495022101s 1 5c995a7f-a8d4-410d-b2db-fd49c28d1ec9
1542660191.710427332s 1 f6227687-ea2a-48cc-9fc3-aceb71ef49fc
1542906150.040213596s 1 e2a612d8-4829-48a2-88bd-46cf3c720040
1543297463.974454714s 1 5c995a7f-a8d4-410d-b2db-fd49c28d1ec9
1543697553.478259559s 0 f6227687-ea2a-48cc-9fc3-aceb71ef49fc
1543767440.777912118s 1 87316946-ba27-41a8-a18b-96b296fb458d
