1542597236.997365498s 1 5c995a7f-a8d4-410d-b2db-fd49c28d1ec9
1542659084.505671921s 1 f6227687-ea2a-48cc-9fc3-aceb71ef49fc
1542886389.603322656s 1 e2a612d8-4829-48a2-88bd-46cf3c720040
1543296316.290465655s 1 5c995a7f-a8d4-410d-b2db-fd49c28d1ec9
1543697550.443897784s 0 f6227687-ea2a-48cc-9fc3-aceb71ef49fc
1543766736.648861071s 1 87316946-ba27-41a8-a18b-96b296fb458d
