1542597524.658884324s 1 5c995a7f-a8d4-410d-b2db-fd49c28d1ec9
1542660275.23557619s 1 f6227687-ea2a-48cc-9fc3-aceb71ef49fc
1542910213.12946288s 1 e2a612d8-4829-48a2-88bd-46cf3c720040
1543297604.405130987s 1 5c995a7f-a8d4-410d-b2db-fd49c28d1ec9
1543697553.796530099s 0 f6227687-ea2a-48cc-9fc3-aceb71ef49fc
1543767508.708347966s 1 87316946-ba27-41a8-a18b-96b296fb458d
