1542596998.828938233s 1 5c995a7f-a8d4-410d-b2db-fd49c28d1ec9
1542658036.208420294s 1 f6227687-ea2a-48cc-9fc3-aceb71ef49fc
1542868242.72969335s 1 e2a612d8-4829-48a2-88bd-46cf3c720040
1543295358.206054703s 1 5c995a7f-a8d4-410d-b2db-fd49c28d1ec9
1543697547.878662592s 0 f6227687-ea2a-48cc-9fc3-aceb71ef49fc
1543766096.590893248s 1 87316946-ba27-41a8-a18b-96b296fb458d
