1542596900.747176623s 1 5c995a7f-a8d4-410d-b2db-fd49c28d1ec9
1542657634.717013973s 1 f6227687-ea2a-48cc-9fc3-aceb71ef49fc
1542860871.344448012s 1 e2a612d8-4829-48a2-88bd-46cf3c720040
1543294951.373146957s 1 5c995a7f-a8d4-410d-b2db-fd49c28d1ec9
1543697546.910388846s 0 f6227687-ea2a-48cc-9fc3-aceb71ef49fc
1543765781.939528513s 1 87316946-ba27-41a8-a18b-96b296fb458d
