1542595783.037270777s 1 5c995a7f-a8d4-410d-b2db-fd49c28d1ec9
1542652343.382198015s 1 f6227687-ea2a-48cc-9fc3-aceb71ef49fc
1542755814.397158724s 1 e2a612d8-4829-48a2-88bd-46cf3c720040
1543050679.655273154s 0 5c995a7f-a8d4-410d-b2db-fd49c28d1ec9
1543291492.876114313s 1 5c995a7f-a8d4-410d-b2db-fd49c28d1ec9
1543696936.355181335s 0 f6227687-ea2a-48cc-9fc3-aceb71ef49fc
1543725477.462935322s 1 87316946-ba27-41a8-a18b-96b296fb458d
