1542595920.296930114s 1 5c995a7f-a8d4-410d-b2db-fd49c28d1ec9
1542653038.020175568s 1 f6227687-ea2a-48cc-9fc3-aceb71ef49fc
1542766180.146019178s 1 e2a612d8-4829-48a2-88bd-46cf3c720040
1543065057.687766969s 0 5c995a7f-a8d4-410d-b2db-fd49c28d1ec9
1543292111.427557075s 1 5c995a7f-a8d4-410d-b2db-fd49c28d1ec9
1543696955.342328927s 0 f6227687-ea2a-48cc-9fc3-aceb71ef49fc
1543730804.198635722s 1 87316946-ba27-41a8-a18b-96b296fb458d
