1542595925.177894625s 1 5c995a7f-a8d4-410d-b2db-fd49c28d1ec9
1542653049.751853933s 1 f6227687-ea2a-48cc-9fc3-aceb71ef49fc
1542765535.808661024s 1 e2a612d8-4829-48a2-88bd-46cf3c720040
1543065571.959270522s 0 5c995a7f-a8d4-410d-b2db-fd49c28d1ec9
1543292133.868304074s 1 5c995a7f-a8d4-410d-b2db-fd49c28d1ec9
1543696955.545772337s 0 f6227687-ea2a-48cc-9fc3-aceb71ef49fc
1543730787.372204746s 1 87316946-ba27-41a8-a18b-96b296fb458d
