1542598609.393398308s 1 5c995a7f-a8d4-410d-b2db-fd49c28d1ec9
1542664923.52537843s 1 f6227687-ea2a-48cc-9fc3-aceb71ef49fc
1542989696.712378139s 1 e2a612d8-4829-48a2-88bd-46cf3c720040
1543280148.882830826s 0 5c995a7f-a8d4-410d-b2db-fd49c28d1ec9
1543697564.758934036s 0 f6227687-ea2a-48cc-9fc3-aceb71ef49fc
1543806601.649225208s 1 87316946-ba27-41a8-a18b-96b296fb458d
