1542599899.184438886s 1 5c995a7f-a8d4-410d-b2db-fd49c28d1ec9
1542669558.605919921s 1 f6227687-ea2a-48cc-9fc3-aceb71ef49fc
1543269880.306438483s 1 e2a612d8-4829-48a2-88bd-46cf3c720040
1543697577.737151153s 0 f6227687-ea2a-48cc-9fc3-aceb71ef49fc
1543824253.653784535s 1 87316946-ba27-41a8-a18b-96b296fb458d
