1542596471.732172306s 1 5c995a7f-a8d4-410d-b2db-fd49c28d1ec9
1542655684.67349414s 1 f6227687-ea2a-48cc-9fc3-aceb71ef49fc
1542809046.811761734s 1 e2a612d8-4829-48a2-88bd-46cf3c720040
1543119707.661732518s 0 5c995a7f-a8d4-410d-b2db-fd49c28d1ec9
1543294616.758626958s 1 5c995a7f-a8d4-410d-b2db-fd49c28d1ec9
1543696971.901171129s 0 f6227687-ea2a-48cc-9fc3-aceb71ef49fc
1543751683.946239744s 1 87316946-ba27-41a8-a18b-96b296fb458d
