1542598623.957463728s 1 5c995a7f-a8d4-410d-b2db-fd49c28d1ec9
1542664935.760349832s 1 f6227687-ea2a-48cc-9fc3-aceb71ef49fc
1542990784.861934707s 1 e2a612d8-4829-48a2-88bd-46cf3c720040
1543280930.687070526s 0 5c995a7f-a8d4-410d-b2db-fd49c28d1ec9
1543697564.876779386s 0 f6227687-ea2a-48cc-9fc3-aceb71ef49fc
1543807524.491001013s 1 87316946-ba27-41a8-a18b-96b296fb458d
