1542599972.437468575s 1 5c995a7f-a8d4-410d-b2db-fd49c28d1ec9
1542669726.176606182s 1 f6227687-ea2a-48cc-9fc3-aceb71ef49fc
1543276873.546728254s 1 e2a612d8-4829-48a2-88bd-46cf3c720040
1543697579.021876247s 0 f6227687-ea2a-48cc-9fc3-aceb71ef49fc
1543824417.621395465s 1 87316946-ba27-41a8-a18b-96b296fb458d
