1542597610.634299681s 1 5c995a7f-a8d4-410d-b2db-fd49c28d1ec9
1542660612.263453779s 1 f6227687-ea2a-48cc-9fc3-aceb71ef49fc
1542913909.641779495s 1 e2a612d8-4829-48a2-88bd-46cf3c720040
1543297950.861790095s 1 5c995a7f-a8d4-410d-b2db-fd49c28d1ec9
1543697554.556130479s 0 f6227687-ea2a-48cc-9fc3-aceb71ef49fc
1543767749.864164984s 1 87316946-ba27-41a8-a18b-96b296fb458d
