1542599192.709379631s 1 5c995a7f-a8d4-410d-b2db-fd49c28d1ec9
1542667408.81677716s 1 f6227687-ea2a-48cc-9fc3-aceb71ef49fc
1543210664.449998767s 1 e2a612d8-4829-48a2-88bd-46cf3c720040
1543697570.734783407s 0 f6227687-ea2a-48cc-9fc3-aceb71ef49fc
1543821775.360423341s 1 87316946-ba27-41a8-a18b-96b296fb458d
