1542597842.549641212s 1 5c995a7f-a8d4-410d-b2db-fd49c28d1ec9
1542661676.51002564s 1 f6227687-ea2a-48cc-9fc3-aceb71ef49fc
1542933897.576785218s 1 e2a612d8-4829-48a2-88bd-46cf3c720040
1543298973.525574328s 1 5c995a7f-a8d4-410d-b2db-fd49c28d1ec9
1543697557.075790461s 0 f6227687-ea2a-48cc-9fc3-aceb71ef49fc
1543768403.814330639s 1 87316946-ba27-41a8-a18b-96b296fb458d
